Extinct Plants HW 4
…
Do climates contribute to stressors associated with extinction in Asia or in other countries that share extinct plant range?

If there are reasons for plant extinction do they link to social or economic activity or is a main cause environment?

In higher stress scenarios, do the secondary metabolites activated cause chemical signals to activate in other plants and insects and in turn stress out other plants in the environment.

Data Exploration

Created a frequency table for the country variable using the count function.

exploratory_data%>%
  count(country)

# A tibble: 57 × 2
   country        n
   <chr>      <int>
 1 Argentina      1
 2 Australia      1
 3 Belgium        1
 4 Bermuda        1
 5 Bhutan         1
 6 Bolivia        1
 7 Brazil         6
 8 Burundi        9
 9 Cabo Verde     1
10 Cameroon       2
# ℹ 47 more rows
…
Trying the group_by function in a histogram. Added filter(country>25) to place a parameter on countries with less than 25 threat_HID counts. It did not work but left the line in the code chunk as a reminder to what did not work.

exploratory_data %>% 
  count(country, threat_HID)

# A tibble: 62 × 3
   country    threat_HID     n
   <chr>           <dbl> <int>
 1 Argentina           1     1
 2 Australia           0     1
 3 Belgium             0     1
 4 Bermuda             1     1
 5 Bhutan              0     1
 6 Bolivia             0     1
 7 Brazil              0     6
 8 Burundi             0     9
 9 Cabo Verde          0     1
10 Cameroon            0     2
# ℹ 52 more rows

exploratory_data %>% 
  group_by(country) %>% 
  summarise(threat_HID, na.rm = TRUE)

Warning: Returning more (or less) than 1 row per `summarise()` group was deprecated in
dplyr 1.1.0.
ℹ Please use `reframe()` instead.
ℹ When switching from `summarise()` to `reframe()`, remember that `reframe()`
  always returns an ungrouped data frame and adjust accordingly.

`summarise()` has grouped output by 'country'. You can override using the
`.groups` argument.

# A tibble: 250 × 3
# Groups:   country [57]
   country   threat_HID na.rm
   <chr>          <dbl> <lgl>
 1 Argentina          1 TRUE 
 2 Australia          0 TRUE 
 3 Belgium            0 TRUE 
 4 Bermuda            1 TRUE 
 5 Bhutan             0 TRUE 
 6 Bolivia            0 TRUE 
 7 Brazil             0 TRUE 
 8 Brazil             0 TRUE 
 9 Brazil             0 TRUE 
10 Brazil             0 TRUE 
# ℹ 240 more rows
…
exploratory_data %>%
  count(country)

# A tibble: 57 × 2
   country        n
   <chr>      <int>
 1 Argentina      1
 2 Australia      1
 3 Belgium        1
 4 Bermuda        1
 5 Bhutan         1
 6 Bolivia        1
 7 Brazil         6
 8 Burundi        9
 9 Cabo Verde     1
10 Cameroon       2
# ℹ 47 more rows
…
In countries that have higher extinction/threat rates are there overlap in the genus and species affected?

Methodology

The exploratory analyses were conducted using a small section of data from the Plants dataset that will be used in this section. The main issue was the formatting and labeling of the data as Country names were overlapping and creating difficulty in discerning which Country had the highest count of extinct plants. ggplot(), geom_bar(), switching the axes, and font formatting worked to create a readable graph of extinct plant counts per Country.

The initial code chunks are used to determine if the full dataset is working correctly. Re-doing the steps to the exploratory analysis using the plants dataset also give credibility to the initial graphs and tables that were created by seeing if data is similar or the same. Classical methods will be used to test which Countries have the highest count of extinct plants as there is a strong assumption that Africa, Asia and the USA will most likely have the highest counts of extinct plants.

Created a frequency table for the country variable using the count function.

plants %>%
  count(country)

# A tibble: 72 × 2
   country        n
   <chr>      <int>
 1 Angola         1
 2 Argentina      1
 3 Australia      2
 4 Belgium        1
 5 Bermuda        1
 6 Bhutan         2
 7 Bolivia        1
 8 Brazil        10
 9 Burundi       17
10 Cabo Verde     2
# ℹ 62 more rows
…
Trying the group_by function in a histogram. Added filter(country>25) to place a parameter on countries with less than 25 threat_HID counts. It did not work but left the line in the code chunk as a reminder to what did not work.

Testing the count function in the plants dataset.

plants %>% 
  count(country, threat_HID)

# A tibble: 80 × 3
   country   threat_HID     n
   <chr>          <dbl> <int>
 1 Angola             1     1
 2 Argentina          1     1
 3 Australia          0     2
 4 Belgium            0     1
 5 Bermuda            1     1
 6 Bhutan             0     2
 7 Bolivia            0     1
 8 Brazil             0    10
 9 Burundi            0    15
10 Burundi            1     2
# ℹ 70 more rows
…
plants %>% 
  group_by(country) %>% 
  summarise(threat_HID, na.rm = TRUE)

Warning: Returning more (or less) than 1 row per `summarise()` group was deprecated in
dplyr 1.1.0.
ℹ Please use `reframe()` instead.
ℹ When switching from `summarise()` to `reframe()`, remember that `reframe()`
  always returns an ungrouped data frame and adjust accordingly.

`summarise()` has grouped output by 'country'. You can override using the
`.groups` argument.

# A tibble: 500 × 3
# Groups:   country [72]
   country   threat_HID na.rm
   <chr>          <dbl> <lgl>
 1 Angola             1 TRUE 
 2 Argentina          1 TRUE 
 3 Australia          0 TRUE 
 4 Australia          0 TRUE 
 5 Belgium            0 TRUE 
 6 Bermuda            1 TRUE 
 7 Bhutan             0 TRUE 
 8 Bhutan             0 TRUE 
 9 Bolivia            0 TRUE 
10 Brazil             0 TRUE 
# ℹ 490 more rows
…
plants %>%
  count(country)

# A tibble: 72 × 2
   country        n
   <chr>      <int>
 1 Angola         1
 2 Argentina      1
 3 Australia      2
 4 Belgium        1
 5 Bermuda        1
 6 Bhutan         2
 7 Bolivia        1
 8 Brazil        10
 9 Burundi       17
10 Cabo Verde     2
# ℹ 62 more rows
…
