Palmer Penguins Initial Analysis
…
The last line pivot_longer, converts the table from being very wide to a long table. Cannot currently get the kable() to work.

Update: was able to get kable() to work with some help from Dr. Duryea as mgritter and dplyr needed to be deleted when I failed to load them correctly.

Selecting Specific Rows and Columns

Can select specific columns using select() or rows satisfying certain conditions using filter(). Can select only the species, island, sex and year columns.

penguins %>%
  select(species, island, sex, year)

# A tibble: 44 × 4
   species island sex    year
   <chr>   <chr>  <chr> <dbl>
 1 Gentoo  Biscoe male   2007
 2 Gentoo  Biscoe male   2008
 3 Gentoo  Biscoe male   2009
 4 Gentoo  Biscoe male   2009
 5 Gentoo  Biscoe male   2009
 6 Gentoo  Biscoe male   2009
 7 Gentoo  Biscoe male   2008
 8 Gentoo  Biscoe male   2009
 9 Gentoo  Biscoe male   2008
10 Gentoo  Biscoe male   2007
# ℹ 34 more rows
…
